[
  {
    "userId" : 1,
    "name": "John Doe",
    "email" : "asd@asd.hu",
    "password" : "$2y$10$idyUm.zNPuRdT8bDgfrCc.LrxMkhY2FgGRIgxkDa7YFuMpt9Ey.My",
    "userType" : "general"
  },
  {
    "userId" : 2,
    "name": "Francis Drake",
    "email" : "asd@asd2.hu",
    "password" : "$2y$10$UsBM2doIMY4KD.satYeb/.zw.jm97TXF9CldWG5ryqKBnM0x26Lom",
    "userType" : "admin"
  }
]
